20|organza-bags-8-x-10-cm-ecru||2,28,40,82|37||0||0|24|18,27,28,29,32,48,55,61,56|{"1":1,"2":1,"3":1}|2019-04-30 07:25:18|2019-05-23 18:20:24|1,2,3|both||new
21|organza-bag-8-x-10-cm-gold|cob-2635-g-dz-511|2,28,37,40,41,82,83,84,85,86,87|||0||0|28|18,27,28,29,33,48,55,61,56|{"1":1.1,"2":1.1,"3":1.1}|2019-04-30 09:33:37|2019-06-11 10:52:14|1,2,3|both||new
23|organza-bag-18-x-24-cm-white||2,28,37,38,39,40,42,82|||0||0|30|18,27,31,44,49,54,62,57|{"1":0.78,"2":0.78,"3":0.78}|2019-04-30 09:37:29|2019-05-23 13:10:33|1,2,3|both||new
24|organza-bag-18-x-24-cm-black||2,28,37,39,41,82,86|||0||0|32|18,29,41,49,55,62,57|{"1":0.7,"2":0.7,"3":0.7}|2019-04-30 09:43:12|2019-06-11 10:17:58|1,2,3|both||new
25|metalic-bag-18-x-24-cm-silver||2,40,77|37||0||0|35|19,27,29,40,49,55,62,57|{"1":0.88,"2":0.88,"3":0.88}|2019-04-30 09:46:16|2019-05-23 13:10:53|1,2,3|both||new
26|juta-bag-18-x-24-cm-light-brown||2,28,38,39,40,41,42,75|37||0||0|36|20,47,50,53,62,57|{"1":1.15,"2":1.15,"3":1.15}|2019-04-30 09:48:58|2019-05-23 13:11:02|1,2,3|both||new
27|linen-bag-30-x-40-cm-natural||2,28,37,38,39,40,41,42,78|||0||0|38|21,27,44,51,53,64,59|{"1":1,"2":1,"3":1}|2019-04-30 09:52:41|2019-05-23 13:11:12|1,2,3|both||new
29|velvet-bag-10-x-13-cm-silver||2,28,37,38,40,80|||0||0|40|25,27,40,49,55,63,58|{"1":1.1,"2":1.1,"3":1.1}|2019-04-30 09:55:57|2019-05-23 13:11:24|1,2,3|both||new
30|juta-bag-8-x-10-cm-red||2,28,37,38,39,40,41,42,75|||0||0|42|20,29,36,49,55,61,56|{"1":1.1,"2":1.1,"3":1.1}|2019-04-30 09:57:45|2019-05-23 13:11:34|1,2,3|both||new
